{
  "version": 2,
  "projects": {
    "admin": {
      "root": "apps/admin",
      "sourceRoot": "apps/admin/src",
      "projectType": "application",
      "targets": {
        "build": {
          "executor": "@nrwl/web:build",
          "outputs": ["{options.outputPath}"],
          "options": {
            "outputPath": "dist/apps/admin",
            "index": "apps/admin/src/index.html",
            "main": "apps/admin/src/main.tsx",
            "polyfills": "apps/admin/src/polyfills.ts",
            "tsConfig": "apps/admin/tsconfig.app.json",
            "assets": ["apps/admin/src/favicon.ico", "apps/admin/src/assets"],
            "styles": ["apps/admin/src/styles.css"],
            "scripts": [],
            "webpackConfig": "@nrwl/react/plugins/webpack"
          },
          "configurations": {
            "production": {
              "fileReplacements": [
                {
                  "replace": "apps/admin/src/environments/environment.ts",
                  "with": "apps/admin/src/environments/environment.prod.ts"
                }
              ],
              "optimization": true,
              "outputHashing": "all",
              "sourceMap": false,
              "extractCss": true,
              "namedChunks": false,
              "extractLicenses": true,
              "vendorChunk": false,
              "budgets": [
                {
                  "type": "initial",
                  "maximumWarning": "500kb",
                  "maximumError": "1mb"
                }
              ]
            }
          }
        },
        "serve": {
          "executor": "@nrwl/web:dev-server",
          "options": {
            "buildTarget": "admin:build",
            "hmr": true
          },
          "configurations": {
            "production": {
              "buildTarget": "admin:build:production",
              "hmr": false
            }
          }
        },
        "lint": {
          "executor": "@nrwl/linter:eslint",
          "outputs": ["{options.outputFile}"],
          "options": {
            "lintFilePatterns": ["apps/admin/**/*.{ts,tsx,js,jsx}"]
          }
        },
        "test": {
          "executor": "@nrwl/jest:jest",
          "outputs": ["coverage/apps/admin"],
          "options": {
            "jestConfig": "apps/admin/jest.config.js",
            "passWithNoTests": true
          }
        }
      }
    },
    "admin-e2e": {
      "root": "apps/admin-e2e",
      "sourceRoot": "apps/admin-e2e/src",
      "projectType": "application",
      "targets": {
        "e2e": {
          "executor": "@nrwl/cypress:cypress",
          "options": {
            "cypressConfig": "apps/admin-e2e/cypress.json",
            "devServerTarget": "admin:serve",
            "tsConfig": "apps/admin-e2e/tsconfig.json"
          },
          "configurations": {
            "production": {
              "devServerTarget": "admin:serve:production"
            }
          }
        },
        "lint": {
          "executor": "@nrwl/linter:eslint",
          "outputs": ["{options.outputFile}"],
          "options": {
            "lintFilePatterns": ["apps/admin-e2e/**/*.{js,ts}"]
          }
        }
      }
    },
    "api-admin": {
      "root": "apps/api-admin",
      "sourceRoot": "apps/api-admin/src",
      "projectType": "application",
      "targets": {
        "build": {
          "executor": "@nrwl/node:build",
          "outputs": ["{options.outputPath}"],
          "options": {
            "outputPath": "dist/apps/api-admin",
            "main": "apps/api-admin/src/main.ts",
            "tsConfig": "apps/api-admin/tsconfig.app.json",
            "assets": ["apps/api-admin/src/assets"]
          },
          "configurations": {
            "production": {
              "optimization": true,
              "extractLicenses": true,
              "inspect": false,
              "fileReplacements": [
                {
                  "replace": "apps/api-admin/src/environments/environment.ts",
                  "with": "apps/api-admin/src/environments/environment.prod.ts"
                }
              ]
            }
          }
        },
        "serve": {
          "executor": "@nrwl/node:execute",
          "options": {
            "buildTarget": "api-admin:build"
          }
        },
        "lint": {
          "executor": "@nrwl/linter:eslint",
          "outputs": ["{options.outputFile}"],
          "options": {
            "lintFilePatterns": ["apps/api-admin/**/*.ts"]
          }
        },
        "test": {
          "executor": "@nrwl/jest:jest",
          "outputs": ["coverage/apps/api-admin"],
          "options": {
            "jestConfig": "apps/api-admin/jest.config.js",
            "passWithNoTests": true
          }
        }
      }
    },
    "api-consumer": {
      "root": "apps/api-consumer",
      "sourceRoot": "apps/api-consumer/src",
      "projectType": "application",
      "targets": {
        "build": {
          "executor": "@nrwl/node:build",
          "outputs": ["{options.outputPath}"],
          "options": {
            "outputPath": "dist/apps/api-consumer",
            "main": "apps/api-consumer/src/main.ts",
            "tsConfig": "apps/api-consumer/tsconfig.app.json",
            "assets": ["apps/api-consumer/src/assets"]
          },
          "configurations": {
            "production": {
              "optimization": true,
              "extractLicenses": true,
              "inspect": false,
              "fileReplacements": [
                {
                  "replace": "apps/api-consumer/src/environments/environment.ts",
                  "with": "apps/api-consumer/src/environments/environment.prod.ts"
                }
              ]
            }
          }
        },
        "serve": {
          "executor": "@nrwl/node:execute",
          "options": {
            "buildTarget": "api-consumer:build"
          }
        },
        "lint": {
          "executor": "@nrwl/linter:eslint",
          "outputs": ["{options.outputFile}"],
          "options": {
            "lintFilePatterns": ["apps/api-consumer/**/*.ts"]
          }
        },
        "test": {
          "executor": "@nrwl/jest:jest",
          "outputs": ["coverage/apps/api-consumer"],
          "options": {
            "jestConfig": "apps/api-consumer/jest.config.js",
            "passWithNoTests": true
          }
        }
      }
    },
    "api-gateway": {
      "root": "apps/api-gateway",
      "sourceRoot": "apps/api-gateway/src",
      "projectType": "application",
      "targets": {
        "build": {
          "executor": "@nrwl/node:build",
          "outputs": ["{options.outputPath}"],
          "options": {
            "outputPath": "dist/apps/api-gateway",
            "main": "apps/api-gateway/src/main.ts",
            "tsConfig": "apps/api-gateway/tsconfig.app.json",
            "assets": ["apps/api-gateway/src/assets"]
          },
          "configurations": {
            "production": {
              "optimization": true,
              "extractLicenses": true,
              "inspect": false,
              "fileReplacements": [
                {
                  "replace": "apps/api-gateway/src/environments/environment.ts",
                  "with": "apps/api-gateway/src/environments/environment.prod.ts"
                }
              ]
            }
          }
        },
        "serve": {
          "executor": "@nrwl/node:execute",
          "options": {
            "buildTarget": "api-gateway:build"
          }
        },
        "lint": {
          "executor": "@nrwl/linter:eslint",
          "outputs": ["{options.outputFile}"],
          "options": {
            "lintFilePatterns": ["apps/api-gateway/**/*.ts"]
          }
        },
        "test": {
          "executor": "@nrwl/jest:jest",
          "outputs": ["coverage/apps/api-gateway"],
          "options": {
            "jestConfig": "apps/api-gateway/jest.config.js",
            "passWithNoTests": true
          }
        }
      }
    },
    "api-marketplace": {
      "root": "apps/api-marketplace",
      "sourceRoot": "apps/api-marketplace/src",
      "projectType": "application",
      "targets": {
        "build": {
          "executor": "@nrwl/node:build",
          "outputs": ["{options.outputPath}"],
          "options": {
            "outputPath": "dist/apps/api-marketplace",
            "main": "apps/api-marketplace/src/main.ts",
            "tsConfig": "apps/api-marketplace/tsconfig.app.json",
            "assets": ["apps/api-marketplace/src/assets"]
          },
          "configurations": {
            "production": {
              "optimization": true,
              "extractLicenses": true,
              "inspect": false,
              "fileReplacements": [
                {
                  "replace": "apps/api-marketplace/src/environments/environment.ts",
                  "with": "apps/api-marketplace/src/environments/environment.prod.ts"
                }
              ]
            }
          }
        },
        "serve": {
          "executor": "@nrwl/node:execute",
          "options": {
            "buildTarget": "api-marketplace:build"
          }
        },
        "lint": {
          "executor": "@nrwl/linter:eslint",
          "outputs": ["{options.outputFile}"],
          "options": {
            "lintFilePatterns": ["apps/api-marketplace/**/*.ts"]
          }
        },
        "test": {
          "executor": "@nrwl/jest:jest",
          "outputs": ["coverage/apps/api-marketplace"],
          "options": {
            "jestConfig": "apps/api-marketplace/jest.config.js",
            "passWithNoTests": true
          }
        }
      }
    },
    "api-producer": {
      "root": "apps/api-producer",
      "sourceRoot": "apps/api-producer/src",
      "projectType": "application",
      "targets": {
        "build": {
          "executor": "@nrwl/node:build",
          "outputs": ["{options.outputPath}"],
          "options": {
            "outputPath": "dist/apps/api-producer",
            "main": "apps/api-producer/src/main.ts",
            "tsConfig": "apps/api-producer/tsconfig.app.json",
            "assets": ["apps/api-producer/src/assets"]
          },
          "configurations": {
            "production": {
              "optimization": true,
              "extractLicenses": true,
              "inspect": false,
              "fileReplacements": [
                {
                  "replace": "apps/api-producer/src/environments/environment.ts",
                  "with": "apps/api-producer/src/environments/environment.prod.ts"
                }
              ]
            }
          }
        },
        "serve": {
          "executor": "@nrwl/node:execute",
          "options": {
            "buildTarget": "api-producer:build"
          }
        },
        "lint": {
          "executor": "@nrwl/linter:eslint",
          "outputs": ["{options.outputFile}"],
          "options": {
            "lintFilePatterns": ["apps/api-producer/**/*.ts"]
          }
        },
        "test": {
          "executor": "@nrwl/jest:jest",
          "outputs": ["coverage/apps/api-producer"],
          "options": {
            "jestConfig": "apps/api-producer/jest.config.js",
            "passWithNoTests": true
          }
        }
      }
    },
    "api-publisher": {
      "root": "apps/api-publisher",
      "sourceRoot": "apps/api-publisher/src",
      "projectType": "application",
      "targets": {
        "build": {
          "executor": "@nrwl/node:build",
          "outputs": ["{options.outputPath}"],
          "options": {
            "outputPath": "dist/apps/api-publisher",
            "main": "apps/api-publisher/src/main.ts",
            "tsConfig": "apps/api-publisher/tsconfig.app.json",
            "assets": ["apps/api-publisher/src/assets"]
          },
          "configurations": {
            "production": {
              "optimization": true,
              "extractLicenses": true,
              "inspect": false,
              "fileReplacements": [
                {
                  "replace": "apps/api-publisher/src/environments/environment.ts",
                  "with": "apps/api-publisher/src/environments/environment.prod.ts"
                }
              ]
            }
          }
        },
        "serve": {
          "executor": "@nrwl/node:execute",
          "options": {
            "buildTarget": "api-publisher:build"
          }
        },
        "lint": {
          "executor": "@nrwl/linter:eslint",
          "outputs": ["{options.outputFile}"],
          "options": {
            "lintFilePatterns": ["apps/api-publisher/**/*.ts"]
          }
        },
        "test": {
          "executor": "@nrwl/jest:jest",
          "outputs": ["coverage/apps/api-publisher"],
          "options": {
            "jestConfig": "apps/api-publisher/jest.config.js",
            "passWithNoTests": true
          }
        }
      }
    },
    "api-security": {
      "root": "apps/api-security",
      "sourceRoot": "apps/api-security/src",
      "projectType": "application",
      "targets": {
        "build": {
          "executor": "@nrwl/node:build",
          "outputs": ["{options.outputPath}"],
          "options": {
            "outputPath": "dist/apps/api-security",
            "main": "apps/api-security/src/main.ts",
            "tsConfig": "apps/api-security/tsconfig.app.json",
            "assets": ["apps/api-security/src/assets"]
          },
          "configurations": {
            "production": {
              "optimization": true,
              "extractLicenses": true,
              "inspect": false,
              "fileReplacements": [
                {
                  "replace": "apps/api-security/src/environments/environment.ts",
                  "with": "apps/api-security/src/environments/environment.prod.ts"
                }
              ]
            }
          }
        },
        "serve": {
          "executor": "@nrwl/node:execute",
          "options": {
            "buildTarget": "api-security:build"
          }
        },
        "lint": {
          "executor": "@nrwl/linter:eslint",
          "outputs": ["{options.outputFile}"],
          "options": {
            "lintFilePatterns": ["apps/api-security/**/*.ts"]
          }
        },
        "test": {
          "executor": "@nrwl/jest:jest",
          "outputs": ["coverage/apps/api-security"],
          "options": {
            "jestConfig": "apps/api-security/jest.config.js",
            "passWithNoTests": true
          }
        }
      }
    },
    "marketplace": {
      "root": "apps/marketplace",
      "sourceRoot": "apps/marketplace/src",
      "projectType": "application",
      "targets": {
        "build": {
          "executor": "@nrwl/web:build",
          "outputs": ["{options.outputPath}"],
          "options": {
            "outputPath": "dist/apps/marketplace",
            "index": "apps/marketplace/src/index.html",
            "main": "apps/marketplace/src/main.tsx",
            "polyfills": "apps/marketplace/src/polyfills.ts",
            "tsConfig": "apps/marketplace/tsconfig.app.json",
            "assets": [
              "apps/marketplace/src/favicon.ico",
              "apps/marketplace/src/assets"
            ],
            "styles": ["apps/marketplace/src/styles.css"],
            "scripts": [],
            "webpackConfig": "@nrwl/react/plugins/webpack"
          },
          "configurations": {
            "production": {
              "fileReplacements": [
                {
                  "replace": "apps/marketplace/src/environments/environment.ts",
                  "with": "apps/marketplace/src/environments/environment.prod.ts"
                }
              ],
              "optimization": true,
              "outputHashing": "all",
              "sourceMap": false,
              "extractCss": true,
              "namedChunks": false,
              "extractLicenses": true,
              "vendorChunk": false,
              "budgets": [
                {
                  "type": "initial",
                  "maximumWarning": "500kb",
                  "maximumError": "1mb"
                }
              ]
            }
          }
        },
        "serve": {
          "executor": "@nrwl/web:dev-server",
          "options": {
            "buildTarget": "marketplace:build",
            "hmr": true
          },
          "configurations": {
            "production": {
              "buildTarget": "marketplace:build:production",
              "hmr": false
            }
          }
        },
        "lint": {
          "executor": "@nrwl/linter:eslint",
          "outputs": ["{options.outputFile}"],
          "options": {
            "lintFilePatterns": ["apps/marketplace/**/*.{ts,tsx,js,jsx}"]
          }
        },
        "test": {
          "executor": "@nrwl/jest:jest",
          "outputs": ["coverage/apps/marketplace"],
          "options": {
            "jestConfig": "apps/marketplace/jest.config.js",
            "passWithNoTests": true
          }
        }
      }
    },
    "marketplace-e2e": {
      "root": "apps/marketplace-e2e",
      "sourceRoot": "apps/marketplace-e2e/src",
      "projectType": "application",
      "targets": {
        "e2e": {
          "executor": "@nrwl/cypress:cypress",
          "options": {
            "cypressConfig": "apps/marketplace-e2e/cypress.json",
            "devServerTarget": "marketplace:serve"
          },
          "configurations": {
            "production": {
              "devServerTarget": "marketplace:serve:production"
            }
          }
        },
        "lint": {
          "executor": "@nrwl/linter:eslint",
          "outputs": ["{options.outputFile}"],
          "options": {
            "lintFilePatterns": ["apps/marketplace-e2e/**/*.{js,ts}"]
          }
        }
      }
    },
    "producer": {
      "root": "apps/producer",
      "sourceRoot": "apps/producer/src",
      "projectType": "application",
      "targets": {
        "build": {
          "executor": "@nrwl/web:build",
          "outputs": ["{options.outputPath}"],
          "options": {
            "outputPath": "dist/apps/producer",
            "index": "apps/producer/src/index.html",
            "main": "apps/producer/src/main.tsx",
            "polyfills": "apps/producer/src/polyfills.ts",
            "tsConfig": "apps/producer/tsconfig.app.json",
            "assets": [
              "apps/producer/src/favicon.ico",
              "apps/producer/src/assets"
            ],
            "styles": ["apps/producer/src/styles.css"],
            "scripts": [],
            "webpackConfig": "@nrwl/react/plugins/webpack"
          },
          "configurations": {
            "production": {
              "fileReplacements": [
                {
                  "replace": "apps/producer/src/environments/environment.ts",
                  "with": "apps/producer/src/environments/environment.prod.ts"
                }
              ],
              "optimization": true,
              "outputHashing": "all",
              "sourceMap": false,
              "extractCss": true,
              "namedChunks": false,
              "extractLicenses": true,
              "vendorChunk": false,
              "budgets": [
                {
                  "type": "initial",
                  "maximumWarning": "500kb",
                  "maximumError": "1mb"
                }
              ]
            }
          }
        },
        "serve": {
          "executor": "@nrwl/web:dev-server",
          "options": {
            "buildTarget": "producer:build",
            "hmr": true
          },
          "configurations": {
            "production": {
              "buildTarget": "producer:build:production",
              "hmr": false
            }
          }
        },
        "lint": {
          "executor": "@nrwl/linter:eslint",
          "outputs": ["{options.outputFile}"],
          "options": {
            "lintFilePatterns": ["apps/producer/**/*.{ts,tsx,js,jsx}"]
          }
        },
        "test": {
          "executor": "@nrwl/jest:jest",
          "outputs": ["coverage/apps/producer"],
          "options": {
            "jestConfig": "apps/producer/jest.config.js",
            "passWithNoTests": true
          }
        }
      }
    },
    "producer-e2e": {
      "root": "apps/producer-e2e",
      "sourceRoot": "apps/producer-e2e/src",
      "projectType": "application",
      "targets": {
        "e2e": {
          "executor": "@nrwl/cypress:cypress",
          "options": {
            "cypressConfig": "apps/producer-e2e/cypress.json",
            "devServerTarget": "producer:serve"
          },
          "configurations": {
            "production": {
              "devServerTarget": "producer:serve:production"
            }
          }
        },
        "lint": {
          "executor": "@nrwl/linter:eslint",
          "outputs": ["{options.outputFile}"],
          "options": {
            "lintFilePatterns": ["apps/producer-e2e/**/*.{js,ts}"]
          }
        }
      }
    },
    "publisher": {
      "root": "apps/publisher",
      "sourceRoot": "apps/publisher/src",
      "projectType": "application",
      "targets": {
        "build": {
          "executor": "@nrwl/web:build",
          "outputs": ["{options.outputPath}"],
          "options": {
            "outputPath": "dist/apps/publisher",
            "index": "apps/publisher/src/index.html",
            "main": "apps/publisher/src/main.tsx",
            "polyfills": "apps/publisher/src/polyfills.ts",
            "tsConfig": "apps/publisher/tsconfig.app.json",
            "assets": [
              "apps/publisher/src/favicon.ico",
              "apps/publisher/src/assets"
            ],
            "styles": ["apps/publisher/src/styles.css"],
            "scripts": [],
            "webpackConfig": "@nrwl/react/plugins/webpack"
          },
          "configurations": {
            "production": {
              "fileReplacements": [
                {
                  "replace": "apps/publisher/src/environments/environment.ts",
                  "with": "apps/publisher/src/environments/environment.prod.ts"
                }
              ],
              "optimization": true,
              "outputHashing": "all",
              "sourceMap": false,
              "extractCss": true,
              "namedChunks": false,
              "extractLicenses": true,
              "vendorChunk": false,
              "budgets": [
                {
                  "type": "initial",
                  "maximumWarning": "500kb",
                  "maximumError": "1mb"
                }
              ]
            }
          }
        },
        "serve": {
          "executor": "@nrwl/web:dev-server",
          "options": {
            "buildTarget": "publisher:build",
            "hmr": true
          },
          "configurations": {
            "production": {
              "buildTarget": "publisher:build:production",
              "hmr": false
            }
          }
        },
        "lint": {
          "executor": "@nrwl/linter:eslint",
          "outputs": ["{options.outputFile}"],
          "options": {
            "lintFilePatterns": ["apps/publisher/**/*.{ts,tsx,js,jsx}"]
          }
        },
        "test": {
          "executor": "@nrwl/jest:jest",
          "outputs": ["coverage/apps/publisher"],
          "options": {
            "jestConfig": "apps/publisher/jest.config.js",
            "passWithNoTests": true
          }
        }
      }
    },
    "publisher-e2e": {
      "root": "apps/publisher-e2e",
      "sourceRoot": "apps/publisher-e2e/src",
      "projectType": "application",
      "targets": {
        "e2e": {
          "executor": "@nrwl/cypress:cypress",
          "options": {
            "cypressConfig": "apps/publisher-e2e/cypress.json",
            "devServerTarget": "publisher:serve"
          },
          "configurations": {
            "production": {
              "devServerTarget": "publisher:serve:production"
            }
          }
        },
        "lint": {
          "executor": "@nrwl/linter:eslint",
          "outputs": ["{options.outputFile}"],
          "options": {
            "lintFilePatterns": ["apps/publisher-e2e/**/*.{js,ts}"]
          }
        }
      }
    },
    "shared-data-models": {
      "root": "libs/shared/data/models",
      "sourceRoot": "libs/shared/data/models/src",
      "projectType": "library",
      "targets": {
        "lint": {
          "executor": "@nrwl/linter:eslint",
          "outputs": ["{options.outputFile}"],
          "options": {
            "lintFilePatterns": ["libs/shared/data/models/**/*.{ts,tsx,js,jsx}"]
          }
        },
        "test": {
          "executor": "@nrwl/jest:jest",
          "outputs": ["coverage/libs/shared/data/models"],
          "options": {
            "jestConfig": "libs/shared/data/models/jest.config.js",
            "passWithNoTests": true
          }
        }
      }
    },
    "shared-ui-web": {
      "root": "libs/shared/ui/web",
      "sourceRoot": "libs/shared/ui/web/src",
      "projectType": "library",
      "targets": {
        "lint": {
          "executor": "@nrwl/linter:eslint",
          "outputs": ["{options.outputFile}"],
          "options": {
            "lintFilePatterns": ["libs/shared/ui/web/**/*.{ts,tsx,js,jsx}"]
          }
        },
        "test": {
          "executor": "@nrwl/jest:jest",
          "outputs": ["coverage/libs/shared/ui/web"],
          "options": {
            "jestConfig": "libs/shared/ui/web/jest.config.js",
            "passWithNoTests": true
          }
        }
      }
    },
    "website": {
      "root": "apps/website",
      "sourceRoot": "apps/website/src",
      "projectType": "application",
      "targets": {
        "build": {
          "executor": "@nrwl/web:build",
          "outputs": ["{options.outputPath}"],
          "options": {
            "outputPath": "dist/apps/website",
            "index": "apps/website/src/index.html",
            "main": "apps/website/src/main.tsx",
            "polyfills": "apps/website/src/polyfills.ts",
            "tsConfig": "apps/website/tsconfig.app.json",
            "assets": [
              "apps/website/src/favicon.ico",
              "apps/website/src/assets"
            ],
            "styles": ["apps/website/src/styles.css"],
            "scripts": [],
            "webpackConfig": "@nrwl/react/plugins/webpack"
          },
          "configurations": {
            "production": {
              "fileReplacements": [
                {
                  "replace": "apps/website/src/environments/environment.ts",
                  "with": "apps/website/src/environments/environment.prod.ts"
                }
              ],
              "optimization": true,
              "outputHashing": "all",
              "sourceMap": false,
              "extractCss": true,
              "namedChunks": false,
              "extractLicenses": true,
              "vendorChunk": false,
              "budgets": [
                {
                  "type": "initial",
                  "maximumWarning": "500kb",
                  "maximumError": "1mb"
                }
              ]
            }
          }
        },
        "serve": {
          "executor": "@nrwl/web:dev-server",
          "options": {
            "buildTarget": "website:build",
            "hmr": true
          },
          "configurations": {
            "production": {
              "buildTarget": "website:build:production",
              "hmr": false
            }
          }
        },
        "lint": {
          "executor": "@nrwl/linter:eslint",
          "outputs": ["{options.outputFile}"],
          "options": {
            "lintFilePatterns": ["apps/website/**/*.{ts,tsx,js,jsx}"]
          }
        },
        "test": {
          "executor": "@nrwl/jest:jest",
          "outputs": ["coverage/apps/website"],
          "options": {
            "jestConfig": "apps/website/jest.config.js",
            "passWithNoTests": true
          }
        }
      }
    },
    "website-e2e": {
      "root": "apps/website-e2e",
      "sourceRoot": "apps/website-e2e/src",
      "projectType": "application",
      "targets": {
        "e2e": {
          "executor": "@nrwl/cypress:cypress",
          "options": {
            "cypressConfig": "apps/website-e2e/cypress.json",
            "devServerTarget": "website:serve"
          },
          "configurations": {
            "production": {
              "devServerTarget": "website:serve:production"
            }
          }
        },
        "lint": {
          "executor": "@nrwl/linter:eslint",
          "outputs": ["{options.outputFile}"],
          "options": {
            "lintFilePatterns": ["apps/website-e2e/**/*.{js,ts}"]
          }
        }
      }
    }
  },
  "cli": {
    "defaultCollection": "@nrwl/react"
  },
  "generators": {
    "@nrwl/react": {
      "application": {
        "style": "css",
        "linter": "eslint",
        "babel": true
      },
      "component": {
        "style": "css"
      },
      "library": {
        "style": "css",
        "linter": "eslint"
      }
    }
  },
  "defaultProject": "admin"
}
